{"items": [{"user_id": 99712, "items": [50881, 42209, 64241, 66646, 99390], "created_at": "2024-08-26T23:26:10.635295", "updated_at": "2024-10-30T23:17:20.525477"}, {"user_id": 17701, "items": [541, 80794, 84146, 95110, 83609], "created_at": "2022-11-19T12:25:30.951056", "updated_at": "2023-01-10T14:05:47.924398"}, {"user_id": 26264, "items": [89991, 17463, 90211, 62111, 65148], "created_at": "2023-04-30T21:43:09.184567", "updated_at": "2024-07-04T12:43:18.995217"}, {"user_id": 28106, "items": [10028, 56917, 57829, 76097, 57271], "created_at": "2023-01-24T03:51:45.853992", "updated_at": "2024-06-19T20:36:36.572259"}, {"user_id": 58226, "items": [40465, 14450, 45630, 43269, 59800], "created_at": "2023-03-09T00:02:27.901115", "updated_at": "2024-08-07T18:27:39.277677"}, {"user_id": 54635, "items": [46610, 57740, 17608, 52058, 60341], "created_at": "2023-04-08T04:48:36.786951", "updated_at": "2023-12-06T05:15:26.755976"}, {"user_id": 90688, "items": [63416, 77964, 28384, 92821, 82373], "created_at": "2023-02-21T00:00:52.269735", "updated_at": "2024-05-04T13:16:25.722831"}, {"user_id": 27746, "items": [82883, 86306, 25441, 46308, 55098], "created_at": "2023-02-10T21:15:52.969311", "updated_at": "2023-11-27T03:00:23.343450"}, {"user_id": 34943, "items": [91535, 27667, 64567, 10867, 19692], "created_at": "2023-03-13T02:38:33.563581", "updated_at": "2023-05-24T06:17:11.398755"}, {"user_id": 97060, "items": [30379, 10842, 76097, 84654, 18816], "created_at": "2024-02-26T22:49:31.526496", "updated_at": "2024-10-28T06:18:13.838324"}, {"user_id": 27910, "items": [35014, 73487, 20003, 79111, 498], "created_at": "2023-09-05T03:12:26.017046", "updated_at": "2024-10-28T03:10:56.732119"}, {"user_id": 66591, "items": [33258, 31052, 31474, 62144, 62370], "created_at": "2023-07-25T23:27:58.723025", "updated_at": "2024-03-24T08:52:11.094475"}, {"user_id": 89341, "items": [12784, 86888, 21453, 77542, 3300], "created_at": "2024-07-06T05:09:44.457843", "updated_at": "2024-10-10T03:21:17.452634"}, {"user_id": 16416, "items": [10842, 92432, 51979, 52927, 23091], "created_at": "2023-09-17T08:28:59.348370", "updated_at": "2023-10-07T19:51:24.963856"}, {"user_id": 52016, "items": [98276, 26448, 71672, 66096, 25030], "created_at": "2022-12-19T14:15:52.090055", "updated_at": "2022-12-23T20:55:33.237231"}, {"user_id": 5635, "items": [78519, 28346, 10928, 23903, 40168], "created_at": "2024-02-11T01:28:37.476261", "updated_at": "2024-10-13T05:35:39.727203"}, {"user_id": 90646, "items": [13507, 46169, 80287, 36023, 95376], "created_at": "2024-06-10T04:02:46.675095", "updated_at": "2024-07-06T22:53:44.283095"}, {"user_id": 94546, "items": [76097, 69552, 98276, 85538, 40142], "created_at": "2023-02-28T10:32:32.654438", "updated_at": "2024-07-21T19:03:31.504149"}, {"user_id": 48312, "items": [11485, 84146, 171, 35323, 71723], "created_at": "2023-06-28T23:26:21.224343", "updated_at": "2023-09-30T23:03:58.107749"}], "total": 1000, "page": 1, "size": 19, "pages": 53}