{"items": [{"id": 94468, "name": "let", "artist": "Scott Nelson", "songwriters": "Steven Sanchez", "duration": "49:15", "genres": "decade", "album": "if", "created_at": "2023-12-31T22:35:12.829855", "updated_at": "2024-09-22T03:06:01.434741"}, {"id": 63520, "name": "area", "artist": "Lisa Cole", "songwriters": "Stephen Gillespie", "duration": "07:19", "genres": "note", "album": "cup", "created_at": "2023-11-17T07:45:27.889743", "updated_at": "2023-12-23T05:08:15.595171"}, {"id": 26750, "name": "many", "artist": "Natalie Weaver", "songwriters": "John Romero", "duration": "58:34", "genres": "discuss", "album": "like", "created_at": "2022-11-21T07:13:37.139360", "updated_at": "2024-03-27T15:10:54.620082"}, {"id": 77340, "name": "study", "artist": "Allen Cruz", "songwriters": "John Meyers", "duration": "14:10", "genres": "sing", "album": "source", "created_at": "2023-08-28T02:23:42.454453", "updated_at": "2024-02-05T08:52:52.981168"}, {"id": 77188, "name": "opportunity", "artist": "Andre Kennedy", "songwriters": "Donna Delgado", "duration": "51:46", "genres": "along", "album": "laugh", "created_at": "2023-10-26T02:48:47.408396", "updated_at": "2024-03-21T16:53:35.700568"}, {"id": 18030, "name": "main", "artist": "Douglas Davis", "songwriters": "Seth Hunter", "duration": "50:30", "genres": "use", "album": "start", "created_at": "2023-05-30T02:56:17.326247", "updated_at": "2023-11-18T16:12:57.602160"}, {"id": 84721, "name": "wrong", "artist": "Christian Ellis", "songwriters": "Gordon Walker", "duration": "47:40", "genres": "from", "album": "ten", "created_at": "2023-12-28T07:32:09.902349", "updated_at": "2024-10-05T06:20:51.225305"}, {"id": 99828, "name": "view", "artist": "Wayne Bennett", "songwriters": "Troy Andrews", "duration": "31:00", "genres": "choice", "album": "former", "created_at": "2023-09-05T22:51:56.081303", "updated_at": "2024-10-07T06:31:39.503753"}, {"id": 79815, "name": "image", "artist": "Sydney Ramirez", "songwriters": "Theresa Vincent", "duration": "24:28", "genres": "for", "album": "sense", "created_at": "2023-04-15T06:13:04.990968", "updated_at": "2024-05-08T15:46:24.620757"}, {"id": 87592, "name": "series", "artist": "Felicia Rogers", "songwriters": "Melinda Lloyd", "duration": "45:57", "genres": "than", "album": "wish", "created_at": "2023-05-25T20:34:23.753578", "updated_at": "2023-12-07T06:20:13.210939"}, {"id": 5554, "name": "trip", "artist": "Jonathan Horton", "songwriters": "Mark Smith", "duration": "39:47", "genres": "realize", "album": "or", "created_at": "2023-02-05T08:28:22.699564", "updated_at": "2024-02-13T00:45:40.671310"}, {"id": 50895, "name": "imagine", "artist": "Jesse Lam", "songwriters": "John Jarvis", "duration": "33:58", "genres": "sell", "album": "analysis", "created_at": "2023-07-03T16:56:40.372921", "updated_at": "2024-04-24T19:59:41.949952"}, {"id": 75383, "name": "significant", "artist": "Lauren Friedman", "songwriters": "Donna Gomez", "duration": "59:37", "genres": "career", "album": "short", "created_at": "2024-07-29T19:20:41.635161", "updated_at": "2024-09-23T15:57:25.296968"}, {"id": 40316, "name": "resource", "artist": "Kevin Marquez", "songwriters": "Donna Sanders", "duration": "03:23", "genres": "hot", "album": "ahead", "created_at": "2024-02-13T08:43:39.251310", "updated_at": "2024-04-10T19:38:59.994877"}, {"id": 19046, "name": "law", "artist": "Christopher Morales", "songwriters": "Mrs. Cheryl Stout", "duration": "44:36", "genres": "the", "album": "treatment", "created_at": "2022-12-17T05:39:26.991382", "updated_at": "2024-03-22T01:44:19.536505"}, {"id": 41105, "name": "poor", "artist": "Kevin Brown", "songwriters": "Timothy Smith", "duration": "09:40", "genres": "future", "album": "culture", "created_at": "2023-07-19T13:25:54.529410", "updated_at": "2024-01-23T00:29:35.272919"}, {"id": 83708, "name": "film", "artist": "Melissa Lewis", "songwriters": "Melissa Howard", "duration": "34:20", "genres": "order", "album": "test", "created_at": "2024-04-10T02:38:38.403733", "updated_at": "2024-06-21T21:46:32.876381"}, {"id": 82070, "name": "our", "artist": "Veronica Gonzalez", "songwriters": "David Williams", "duration": "57:49", "genres": "receive", "album": "heavy", "created_at": "2024-10-23T03:40:53.328412", "updated_at": "2024-10-01T03:33:08.041045"}, {"id": 43269, "name": "end", "artist": "Samantha King", "songwriters": "Ann Conley", "duration": "08:36", "genres": "serve", "album": "four", "created_at": "2023-12-03T22:51:29.046376", "updated_at": "2024-02-29T19:01:33.640895"}, {"id": 80794, "name": "best", "artist": "Aaron Jones", "songwriters": "Catherine Harris", "duration": "04:45", "genres": "happy", "album": "student", "created_at": "2024-01-26T19:32:32.286059", "updated_at": "2024-06-01T08:45:56.530139"}, {"id": 5551, "name": "operation", "artist": "Virginia Mclaughlin", "songwriters": "Susan Mills", "duration": "23:21", "genres": "move", "album": "need", "created_at": "2024-03-02T22:31:42.660724", "updated_at": "2024-06-04T10:55:51.888383"}, {"id": 26608, "name": "bring", "artist": "Jaime Rose", "songwriters": "Matthew Murray", "duration": "27:56", "genres": "first", "album": "its", "created_at": "2024-10-07T08:05:02.247026", "updated_at": "2024-10-10T13:29:48.540821"}, {"id": 49061, "name": "enough", "artist": "Sean Martinez", "songwriters": "Christian Miller", "duration": "07:44", "genres": "through", "album": "music", "created_at": "2023-03-16T12:46:30.546578", "updated_at": "2024-07-03T00:13:43.893520"}, {"id": 95615, "name": "evidence", "artist": "Andrea Weber", "songwriters": "Ethan Curtis", "duration": "56:21", "genres": "note", "album": "building", "created_at": "2023-10-26T21:32:55.147513", "updated_at": "2024-03-14T19:44:44.466657"}, {"id": 21773, "name": "movement", "artist": "Roberto Beck", "songwriters": "Kathryn Arnold", "duration": "26:00", "genres": "base", "album": "gun", "created_at": "2023-08-14T21:22:16.694687", "updated_at": "2024-08-02T04:02:58.943121"}, {"id": 34458, "name": "top", "artist": "Leslie Washington", "songwriters": "Randy Ellis", "duration": "57:10", "genres": "almost", "album": "garden", "created_at": "2023-09-29T15:13:01.573300", "updated_at": "2024-05-14T08:59:53.256067"}, {"id": 72439, "name": "number", "artist": "Andrew Reyes", "songwriters": "John Ortiz", "duration": "13:08", "genres": "financial", "album": "treatment", "created_at": "2023-01-23T04:03:12.888440", "updated_at": "2024-05-14T14:05:19.860093"}, {"id": 41092, "name": "listen", "artist": "Hannah Thomas", "songwriters": "Christina James", "duration": "22:47", "genres": "worry", "album": "yard", "created_at": "2024-02-29T09:52:04.176394", "updated_at": "2024-10-12T00:50:34.164057"}, {"id": 41930, "name": "modern", "artist": "Dawn Mullins", "songwriters": "Cathy Pennington", "duration": "30:20", "genres": "agreement", "album": "within", "created_at": "2023-06-05T01:29:35.447960", "updated_at": "2024-04-21T07:20:30.429138"}, {"id": 53774, "name": "card", "artist": "Diane Perez", "songwriters": "Joanne Brown", "duration": "08:08", "genres": "just", "album": "form", "created_at": "2023-06-29T16:25:18.753825", "updated_at": "2024-02-10T04:43:17.668684"}, {"id": 66096, "name": "final", "artist": "Nathan Smith", "songwriters": "Michael Wilson", "duration": "24:32", "genres": "color", "album": "author", "created_at": "2022-12-14T07:40:51.447354", "updated_at": "2023-11-28T09:47:34.286445"}, {"id": 45693, "name": "public", "artist": "Marcus Newman", "songwriters": "Tammy Bailey", "duration": "40:09", "genres": "rock", "album": "anything", "created_at": "2023-10-17T21:08:46.078432", "updated_at": "2024-08-06T18:26:01.563720"}, {"id": 69850, "name": "bring", "artist": "Mrs. Elizabeth Martinez", "songwriters": "Anthony Armstrong", "duration": "57:54", "genres": "since", "album": "it", "created_at": "2022-12-26T04:06:27.434567", "updated_at": "2024-03-28T19:10:59.481406"}, {"id": 51141, "name": "reach", "artist": "Cheryl Leonard", "songwriters": "Mary Herrera", "duration": "12:16", "genres": "main", "album": "bank", "created_at": "2023-03-08T14:04:45.555114", "updated_at": "2024-06-14T09:06:17.848428"}, {"id": 1501, "name": "what", "artist": "Jack Jones", "songwriters": "Ann Murphy", "duration": "41:07", "genres": "firm", "album": "different", "created_at": "2023-08-01T04:42:59.422421", "updated_at": "2024-04-22T03:40:04.956665"}, {"id": 51344, "name": "continue", "artist": "Lauren Robinson", "songwriters": "Mrs. Martha Oneal DVM", "duration": "07:48", "genres": "small", "album": "network", "created_at": "2024-07-15T11:40:20.230836", "updated_at": "2024-10-05T22:33:04.320508"}, {"id": 71606, "name": "situation", "artist": "Jennifer Yang", "songwriters": "Joe Cantrell", "duration": "11:50", "genres": "product", "album": "notice", "created_at": "2023-11-15T01:02:25.860875", "updated_at": "2024-01-20T17:51:09.430502"}, {"id": 84279, "name": "talk", "artist": "Eric Henry", "songwriters": "Teresa Gutierrez", "duration": "25:36", "genres": "arrive", "album": "food", "created_at": "2022-12-01T15:45:07.681731", "updated_at": "2024-07-04T22:31:09.441949"}, {"id": 20413, "name": "I", "artist": "Miss Lori Johnson", "songwriters": "George Bernard", "duration": "35:13", "genres": "shake", "album": "everybody", "created_at": "2023-12-09T17:08:43.538934", "updated_at": "2024-06-28T13:35:36.448561"}, {"id": 39535, "name": "factor", "artist": "Paul Ayala", "songwriters": "Daniel Li", "duration": "03:45", "genres": "product", "album": "store", "created_at": "2024-11-11T06:42:37.339401", "updated_at": "2024-07-22T19:50:52.154395"}, {"id": 94212, "name": "policy", "artist": "Timothy Estes", "songwriters": "Johnny Davis", "duration": "45:38", "genres": "so", "album": "relate", "created_at": "2024-06-13T20:08:07.630801", "updated_at": "2023-12-24T12:39:34.346818"}, {"id": 84469, "name": "face", "artist": "Robert Jackson", "songwriters": "Marvin Stephens", "duration": "08:36", "genres": "action", "album": "human", "created_at": "2022-12-17T21:28:11.313935", "updated_at": "2024-02-27T08:30:01.032512"}, {"id": 4851, "name": "manager", "artist": "Jennifer Brown", "songwriters": "Scott Ellison", "duration": "42:08", "genres": "call", "album": "future", "created_at": "2024-06-02T22:49:14.994486", "updated_at": "2024-08-20T22:18:57.361959"}, {"id": 23206, "name": "politics", "artist": "Brandon Garcia", "songwriters": "Lauren Costa", "duration": "56:24", "genres": "likely", "album": "instead", "created_at": "2024-02-21T21:08:06.321764", "updated_at": "2024-07-28T09:33:53.855142"}, {"id": 84685, "name": "lot", "artist": "Matthew Jones", "songwriters": "Adam Barrera", "duration": "11:06", "genres": "born", "album": "contain", "created_at": "2023-08-11T05:31:30.168142", "updated_at": "2024-04-09T02:34:59.692444"}, {"id": 53991, "name": "card", "artist": "Ana Newman", "songwriters": "David Cross", "duration": "59:27", "genres": "these", "album": "second", "created_at": "2024-09-15T14:00:45.844231", "updated_at": "2024-07-21T06:26:11.429130"}, {"id": 44051, "name": "according", "artist": "Adrienne Hoover", "songwriters": "Taylor Vega", "duration": "10:23", "genres": "news", "album": "whole", "created_at": "2024-09-15T09:32:21.339479", "updated_at": "2024-08-06T04:28:05.549330"}, {"id": 48906, "name": "health", "artist": "Vanessa Johnson", "songwriters": "Andrew Fuller", "duration": "21:15", "genres": "able", "album": "bad", "created_at": "2023-11-09T17:30:20.601144", "updated_at": "2024-04-17T05:06:44.333088"}, {"id": 91517, "name": "yard", "artist": "Jeremy Walker", "songwriters": "Bradley Flores", "duration": "15:46", "genres": "science", "album": "drop", "created_at": "2023-09-25T22:55:59.870416", "updated_at": "2024-09-02T18:40:47.061957"}, {"id": 77538, "name": "remain", "artist": "John Ramirez", "songwriters": "James Caldwell", "duration": "15:33", "genres": "themselves", "album": "feel", "created_at": "2023-01-04T10:15:28.056955", "updated_at": "2024-01-08T23:20:13.223484"}, {"id": 82173, "name": "bed", "artist": "Paul Ramirez", "songwriters": "Matthew Smith", "duration": "02:45", "genres": "employee", "album": "commercial", "created_at": "2023-02-19T22:30:19.974754", "updated_at": "2024-08-01T09:33:29.653752"}, {"id": 54489, "name": "down", "artist": "Sharon Thomas", "songwriters": "Kelsey Taylor", "duration": "56:08", "genres": "trial", "album": "score", "created_at": "2024-05-12T06:38:13.225928", "updated_at": "2024-02-20T13:10:45.210577"}, {"id": 23903, "name": "mouth", "artist": "Linda Watts", "songwriters": "Christine Liu", "duration": "05:50", "genres": "candidate", "album": "type", "created_at": "2024-02-11T00:12:20.894521", "updated_at": "2024-04-22T22:54:35.199243"}, {"id": 5342, "name": "buy", "artist": "Joyce Duncan", "songwriters": "Richard Molina", "duration": "37:34", "genres": "last", "album": "never", "created_at": "2024-04-06T14:13:40.115953", "updated_at": "2024-03-05T20:10:21.092485"}, {"id": 30038, "name": "together", "artist": "Julia Howard", "songwriters": "Hannah Soto", "duration": "51:36", "genres": "each", "album": "able", "created_at": "2024-06-21T22:32:48.537314", "updated_at": "2024-07-14T09:08:05.812488"}, {"id": 19915, "name": "whether", "artist": "Caleb Hanson", "songwriters": "Ethan Stewart", "duration": "19:45", "genres": "within", "album": "value", "created_at": "2024-06-22T16:34:09.569197", "updated_at": "2024-03-17T03:32:25.063202"}, {"id": 33224, "name": "police", "artist": "Nicole Leonard", "songwriters": "Jenna Nguyen", "duration": "24:59", "genres": "matter", "album": "site", "created_at": "2023-02-16T23:25:32.259568", "updated_at": "2024-07-02T19:17:48.569467"}, {"id": 15396, "name": "community", "artist": "Sarah Smith", "songwriters": "Krystal Soto", "duration": "42:52", "genres": "laugh", "album": "power", "created_at": "2024-03-21T03:49:03.833250", "updated_at": "2024-02-03T17:32:13.396729"}, {"id": 1235, "name": "success", "artist": "Justin Harvey Jr.", "songwriters": "Michael Alvarado", "duration": "17:42", "genres": "example", "album": "perform", "created_at": "2024-04-11T14:07:27.998243", "updated_at": "2024-05-07T12:29:16.134568"}, {"id": 95148, "name": "art", "artist": "Jamie Williams", "songwriters": "Donald Thompson", "duration": "30:42", "genres": "successful", "album": "year", "created_at": "2023-11-11T18:45:18.303603", "updated_at": "2024-03-19T11:16:06.607704"}, {"id": 69552, "name": "model", "artist": "Nicole Sawyer", "songwriters": "Maria Davidson", "duration": "19:06", "genres": "officer", "album": "apply", "created_at": "2023-03-11T19:32:40.608846", "updated_at": "2024-03-09T16:14:06.858262"}, {"id": 55889, "name": "discuss", "artist": "Danny Sanchez", "songwriters": "Jessica Davis DVM", "duration": "29:45", "genres": "avoid", "album": "effect", "created_at": "2023-12-31T02:54:22.370894", "updated_at": "2024-09-19T18:40:28.580875"}, {"id": 6503, "name": "something", "artist": "Meredith Sutton", "songwriters": "Mrs. Jessica Castro DDS", "duration": "54:59", "genres": "pull", "album": "upon", "created_at": "2023-03-17T01:59:10.088502", "updated_at": "2024-06-07T02:23:51.014705"}, {"id": 5173, "name": "say", "artist": "Tracey Torres", "songwriters": "Dalton Castillo", "duration": "41:05", "genres": "sort", "album": "how", "created_at": "2023-06-24T04:08:41.654597", "updated_at": "2024-02-06T01:26:05.340637"}, {"id": 89471, "name": "friend", "artist": "Cody Smith", "songwriters": "Andrew Trujillo", "duration": "11:07", "genres": "suddenly", "album": "across", "created_at": "2023-02-21T02:56:13.403200", "updated_at": "2024-03-14T12:28:25.787192"}, {"id": 92821, "name": "cultural", "artist": "Peter Bennett", "songwriters": "Morgan Kane", "duration": "01:15", "genres": "along", "album": "picture", "created_at": "2022-12-20T10:11:01.791854", "updated_at": "2024-08-14T03:55:14.811219"}, {"id": 5897, "name": "teacher", "artist": "Brian Martinez", "songwriters": "Tony Rogers", "duration": "38:51", "genres": "yeah", "album": "fight", "created_at": "2023-01-04T09:06:59.440440", "updated_at": "2024-05-12T16:14:04.569370"}, {"id": 1053, "name": "worry", "artist": "Sara Medina", "songwriters": "Tyler Park", "duration": "39:22", "genres": "arrive", "album": "course", "created_at": "2024-05-17T20:23:50.919669", "updated_at": "2024-02-08T19:08:43.669615"}, {"id": 24092, "name": "structure", "artist": "William Navarro", "songwriters": "Carolyn Wilson", "duration": "01:08", "genres": "into", "album": "else", "created_at": "2024-10-07T04:01:12.421302", "updated_at": "2024-05-15T05:41:54.479426"}, {"id": 608, "name": "point", "artist": "Eric Kemp", "songwriters": "Samantha Acosta", "duration": "07:31", "genres": "under", "album": "design", "created_at": "2024-11-10T21:39:00.328077", "updated_at": "2024-09-12T05:45:19.921065"}, {"id": 76777, "name": "wall", "artist": "Kristina Reyes", "songwriters": "Ronald Franco", "duration": "56:21", "genres": "production", "album": "build", "created_at": "2023-05-19T10:11:31.804808", "updated_at": "2024-03-06T06:13:25.512080"}, {"id": 42852, "name": "phone", "artist": "Joshua Smith", "songwriters": "Gina Lewis", "duration": "25:47", "genres": "show", "album": "blood", "created_at": "2023-11-20T12:51:09.793803", "updated_at": "2024-03-19T09:57:49.516664"}, {"id": 40142, "name": "fine", "artist": "Joshua Hogan", "songwriters": "Glenn Olson", "duration": "56:14", "genres": "also", "album": "mission", "created_at": "2024-04-09T15:07:08.659178", "updated_at": "2024-09-03T13:39:29.775986"}, {"id": 84703, "name": "cultural", "artist": "Donald Tucker", "songwriters": "Meredith Frazier", "duration": "15:05", "genres": "class", "album": "because", "created_at": "2024-03-13T23:36:21.033134", "updated_at": "2024-02-13T03:33:34.756857"}, {"id": 4089, "name": "husband", "artist": "Joshua Parker", "songwriters": "Matthew Solis", "duration": "07:30", "genres": "black", "album": "reveal", "created_at": "2024-04-27T10:10:58.818596", "updated_at": "2024-02-07T13:52:35.802876"}, {"id": 36767, "name": "case", "artist": "Alexander Daniels", "songwriters": "John Watkins", "duration": "53:26", "genres": "best", "album": "save", "created_at": "2024-10-23T18:56:46.686552", "updated_at": "2024-10-03T11:12:43.603716"}, {"id": 44003, "name": "color", "artist": "David Grant", "songwriters": "Cheryl Neal", "duration": "38:52", "genres": "travel", "album": "other", "created_at": "2023-02-10T15:34:16.985397", "updated_at": "2024-07-15T06:15:26.000821"}, {"id": 21586, "name": "according", "artist": "Howard Johnson", "songwriters": "Shari Johnson", "duration": "02:01", "genres": "magazine", "album": "cultural", "created_at": "2023-01-21T06:07:05.190772", "updated_at": "2024-04-15T20:07:33.170451"}, {"id": 84349, "name": "sing", "artist": "Margaret Bowman", "songwriters": "Timothy Morris", "duration": "00:26", "genres": "four", "album": "pick", "created_at": "2023-12-21T12:05:00.321431", "updated_at": "2024-10-21T00:27:48.385734"}, {"id": 27389, "name": "capital", "artist": "David Peterson", "songwriters": "Andrea Hoffman", "duration": "39:13", "genres": "clearly", "album": "decade", "created_at": "2023-04-20T06:52:38.462319", "updated_at": "2024-07-28T06:04:45.034239"}, {"id": 10928, "name": "would", "artist": "Gwendolyn Singh", "songwriters": "David Salazar", "duration": "35:07", "genres": "nothing", "album": "structure", "created_at": "2023-10-24T20:56:47.981282", "updated_at": "2024-01-09T14:05:16.600707"}, {"id": 68597, "name": "with", "artist": "Steven Mcintosh", "songwriters": "Robert Norton", "duration": "21:56", "genres": "reach", "album": "draw", "created_at": "2023-04-12T08:25:16.088283", "updated_at": "2024-06-09T07:40:19.782358"}, {"id": 76727, "name": "language", "artist": "Joshua Pearson", "songwriters": "Jon Wagner", "duration": "03:05", "genres": "price", "album": "series", "created_at": "2024-05-31T23:56:38.126751", "updated_at": "2024-03-21T22:32:39.373107"}, {"id": 27292, "name": "risk", "artist": "Mrs. Alexa Harris", "songwriters": "Jessica Davis", "duration": "01:28", "genres": "adult", "album": "result", "created_at": "2024-08-19T15:12:28.221240", "updated_at": "2024-01-02T08:01:22.899786"}, {"id": 33928, "name": "under", "artist": "Melissa Jackson", "songwriters": "Mr. Glenn Thornton MD", "duration": "00:50", "genres": "best", "album": "agreement", "created_at": "2023-02-04T18:48:40.129880", "updated_at": "2024-08-08T18:18:07.304656"}, {"id": 92944, "name": "board", "artist": "Jennifer Heath", "songwriters": "Susan Beck", "duration": "15:43", "genres": "staff", "album": "certainly", "created_at": "2024-07-15T15:07:09.898093", "updated_at": "2023-11-29T09:26:37.035767"}, {"id": 81493, "name": "manager", "artist": "Leslie Gallegos", "songwriters": "Gary Robinson", "duration": "18:12", "genres": "the", "album": "parent", "created_at": "2023-10-21T02:32:13.049867", "updated_at": "2023-12-14T05:04:28.845322"}, {"id": 12832, "name": "religious", "artist": "Mrs. Stacy Morales", "songwriters": "Nicholas Mclaughlin", "duration": "11:48", "genres": "rich", "album": "trouble", "created_at": "2024-01-08T13:58:39.365194", "updated_at": "2023-12-17T18:19:50.029053"}, {"id": 27082, "name": "yard", "artist": "David Gallagher", "songwriters": "Carlos Coffey", "duration": "30:53", "genres": "a", "album": "form", "created_at": "2024-01-19T20:27:20.219173", "updated_at": "2024-10-23T16:00:46.025862"}, {"id": 49316, "name": "radio", "artist": "Michael Francis", "songwriters": "Matthew Williams", "duration": "20:00", "genres": "situation", "album": "also", "created_at": "2024-06-18T07:52:57.982003", "updated_at": "2024-08-04T06:54:06.479235"}, {"id": 97206, "name": "within", "artist": "Melissa Walker", "songwriters": "Danielle White", "duration": "08:34", "genres": "compare", "album": "night", "created_at": "2024-02-16T23:33:33.473591", "updated_at": "2024-09-26T08:51:33.182603"}, {"id": 15004, "name": "brother", "artist": "Kimberly Cantu", "songwriters": "Brian Barrera", "duration": "21:41", "genres": "owner", "album": "approach", "created_at": "2023-03-07T14:01:18.656498", "updated_at": "2024-02-11T22:06:01.451778"}, {"id": 28492, "name": "little", "artist": "Natalie Baker", "songwriters": "Eric Huang", "duration": "13:27", "genres": "suddenly", "album": "floor", "created_at": "2023-07-22T05:16:22.346045", "updated_at": "2023-12-22T20:47:10.241879"}, {"id": 62111, "name": "some", "artist": "Megan Parks", "songwriters": "Daniel Hall", "duration": "19:58", "genres": "off", "album": "picture", "created_at": "2024-07-23T11:47:39.246609", "updated_at": "2024-03-21T17:28:53.201608"}, {"id": 82883, "name": "spend", "artist": "Michelle Harmon", "songwriters": "Joshua Wilson", "duration": "32:29", "genres": "successful", "album": "book", "created_at": "2024-02-05T14:30:20.345193", "updated_at": "2024-06-25T16:54:36.146605"}, {"id": 71499, "name": "perform", "artist": "Edward Walker", "songwriters": "Christine Bauer", "duration": "35:36", "genres": "audience", "album": "relationship", "created_at": "2024-02-09T15:34:31.055130", "updated_at": "2024-10-01T10:25:28.178101"}], "total": 1000, "page": 1, "size": 96, "pages": 11}