{"items": [{"id": 99712, "first_name": "Christina", "last_name": "Moran", "email": "lindsaygomez@example.org", "gender": "Genderfluid", "favorite_genres": "R&B", "created_at": "2024-02-18T09:33:31.341493", "updated_at": "2023-12-14T07:27:11.085991"}, {"id": 17701, "first_name": "Suzanne", "last_name": "Bradley", "email": "xharvey@example.com", "gender": "Male", "favorite_genres": "Pop", "created_at": "2023-02-11T16:20:58.952093", "updated_at": "2024-05-05T07:55:24.473403"}, {"id": 26264, "first_name": "Wesley", "last_name": "Warner", "email": "jennifer32@example.org", "gender": "Bigender", "favorite_genres": "Jazz", "created_at": "2024-07-08T18:25:02.109268", "updated_at": "2024-04-05T13:42:18.650249"}, {"id": 28106, "first_name": "Annette", "last_name": "Gardner", "email": "spayne@example.com", "gender": "Non-binary", "favorite_genres": "Classical", "created_at": "2023-06-04T09:44:13.582679", "updated_at": "2024-02-12T00:03:50.660974"}, {"id": 58226, "first_name": "Vicki", "last_name": "Hall", "email": "bhoffman@example.net", "gender": "Male", "favorite_genres": "Hip Hop", "created_at": "2023-07-03T19:15:46.668682", "updated_at": "2024-08-23T17:02:04.626068"}, {"id": 54635, "first_name": "Scott", "last_name": "Ellis", "email": "cfitzpatrick@example.com", "gender": "Agender", "favorite_genres": "Metal", "created_at": "2024-04-03T20:33:01.524845", "updated_at": "2024-01-28T00:24:09.523479"}, {"id": 90688, "first_name": "Lisa", "last_name": "Mckinney", "email": "starkronald@example.com", "gender": "Gender questioning", "favorite_genres": "Indie", "created_at": "2023-03-31T21:04:33.617831", "updated_at": "2024-05-27T04:30:40.146661"}, {"id": 27746, "first_name": "Rachael", "last_name": "Palmer", "email": "russellgrant@example.com", "gender": "Gender questioning", "favorite_genres": "Techno", "created_at": "2023-09-21T20:16:26.536982", "updated_at": "2024-08-07T05:48:47.042877"}, {"id": 34943, "first_name": "Angela", "last_name": "Howard", "email": "emilyriley@example.net", "gender": "Bigender", "favorite_genres": "Funk", "created_at": "2024-08-09T00:01:11.640856", "updated_at": "2023-12-24T04:20:24.840865"}, {"id": 97060, "first_name": "Anthony", "last_name": "Hansen", "email": "lhowell@example.com", "gender": "Gender nonconforming", "favorite_genres": "Indie", "created_at": "2023-02-13T13:30:46.261492", "updated_at": "2024-01-24T07:32:01.871772"}, {"id": 27910, "first_name": "Christina", "last_name": "Watkins", "email": "kerrtimothy@example.net", "gender": "Agender", "favorite_genres": "Electronic", "created_at": "2023-12-09T14:50:26.071501", "updated_at": "2024-11-08T07:24:12.314437"}, {"id": 66591, "first_name": "Alexander", "last_name": "Brooks", "email": "roberthill@example.org", "gender": "Gender questioning", "favorite_genres": "Jazz", "created_at": "2023-08-15T06:53:11.657025", "updated_at": "2024-08-25T00:46:14.809438"}, {"id": 89341, "first_name": "David", "last_name": "Gibson", "email": "jared02@example.net", "gender": "Bigender", "favorite_genres": "Blues", "created_at": "2024-04-10T06:21:05.105868", "updated_at": "2024-06-09T23:33:46.865203"}, {"id": 16416, "first_name": "David", "last_name": "Wright", "email": "michellecruz@example.org", "gender": "Gender questioning", "favorite_genres": "Indie", "created_at": "2023-08-18T12:14:27.367611", "updated_at": "2024-09-26T10:16:10.562933"}, {"id": 52016, "first_name": "Samantha", "last_name": "Bradley", "email": "whitetiffany@example.com", "gender": "Agender", "favorite_genres": "Blues", "created_at": "2023-04-10T15:18:30.768366", "updated_at": "2023-12-03T05:59:03.392543"}, {"id": 5635, "first_name": "Laura", "last_name": "Rodgers", "email": "qduncan@example.net", "gender": "Bigender", "favorite_genres": "Country", "created_at": "2023-10-11T11:14:42.926841", "updated_at": "2024-06-01T15:13:39.312424"}, {"id": 90646, "first_name": "James", "last_name": "Ryan", "email": "christopherlong@example.com", "gender": "Genderqueer", "favorite_genres": "Folk", "created_at": "2024-01-15T02:36:27.553390", "updated_at": "2024-05-16T09:16:46.524507"}, {"id": 94546, "first_name": "Allen", "last_name": "Mullen", "email": "randallwoods@example.org", "gender": "Genderqueer", "favorite_genres": "Country", "created_at": "2024-09-12T03:58:32.573564", "updated_at": "2024-04-30T04:10:59.067404"}, {"id": 48312, "first_name": "Kaitlin", "last_name": "Singh", "email": "ellenhaas@example.com", "gender": "Female", "favorite_genres": "Punk", "created_at": "2024-01-20T10:36:57.687069", "updated_at": "2023-12-26T17:04:19.974988"}, {"id": 47999, "first_name": "Cory", "last_name": "Williams", "email": "ramirezbrittany@example.com", "gender": "Bigender", "favorite_genres": "Pop", "created_at": "2023-11-07T14:12:16.629444", "updated_at": "2024-01-29T13:56:31.049818"}, {"id": 45409, "first_name": "Vincent", "last_name": "Williams", "email": "tparker@example.org", "gender": "Gender questioning", "favorite_genres": "Metal", "created_at": "2024-08-20T15:37:50.539921", "updated_at": "2023-12-03T18:22:24.458382"}, {"id": 80091, "first_name": "Drew", "last_name": "Charles", "email": "handerson@example.net", "gender": "Non-binary", "favorite_genres": "Funk", "created_at": "2024-03-25T12:18:02.250841", "updated_at": "2024-03-15T16:39:01.445785"}, {"id": 78484, "first_name": "Jonathan", "last_name": "Weaver", "email": "paul70@example.org", "gender": "Non-binary", "favorite_genres": "Techno", "created_at": "2024-01-18T06:01:56.616198", "updated_at": "2024-02-05T15:57:00.767442"}, {"id": 76121, "first_name": "Rebecca", "last_name": "Harper", "email": "mhammond@example.net", "gender": "Gender nonconforming", "favorite_genres": "Jazz", "created_at": "2023-08-27T03:48:00.332462", "updated_at": "2024-09-15T04:17:48.608247"}, {"id": 57632, "first_name": "Anna", "last_name": "Palmer", "email": "cindy50@example.net", "gender": "Genderqueer", "favorite_genres": "Folk", "created_at": "2023-02-21T15:50:29.638309", "updated_at": "2024-05-05T09:25:44.627288"}, {"id": 7761, "first_name": "Amber", "last_name": "Elliott", "email": "connor52@example.net", "gender": "Agender", "favorite_genres": "Jazz", "created_at": "2024-01-25T02:17:58.810061", "updated_at": "2024-09-22T05:26:43.432850"}, {"id": 33501, "first_name": "Linda", "last_name": "Mason", "email": "parsonsdavid@example.com", "gender": "Bigender", "favorite_genres": "Classical", "created_at": "2023-06-09T07:04:32.621336", "updated_at": "2024-04-22T08:48:28.903411"}, {"id": 7330, "first_name": "Brandon", "last_name": "Welch", "email": "coreygates@example.net", "gender": "Male", "favorite_genres": "Hip Hop", "created_at": "2024-06-11T07:20:10.165509", "updated_at": "2024-09-17T21:48:17.249710"}, {"id": 94965, "first_name": "Andrew", "last_name": "Thompson", "email": "cesar61@example.net", "gender": "Genderfluid", "favorite_genres": "Rock", "created_at": "2024-04-13T23:32:12.041905", "updated_at": "2024-01-10T05:47:39.901368"}, {"id": 46087, "first_name": "Elizabeth", "last_name": "Jackson", "email": "barrettjustin@example.org", "gender": "Genderfluid", "favorite_genres": "Alternative", "created_at": "2023-09-16T12:28:15.460252", "updated_at": "2024-06-22T15:10:55.928225"}, {"id": 79703, "first_name": "Patrick", "last_name": "Hart", "email": "terry54@example.org", "gender": "Bigender", "favorite_genres": "Reggae", "created_at": "2024-06-16T09:31:26.205018", "updated_at": "2023-11-24T19:48:05.987446"}], "total": 1000, "page": 1, "size": 31, "pages": 33}